{
  "count": 248,
  "next": "https://api.theogonia.net/gods/?limit=20&offset=20",
  "previous": null,
  "results": [
    {
      "name": "Zeus",
      "url": "https://api.theogonia.net/gods/Zeus"
    }
  ]
}
